<?xml version="1.0" encoding="UTF-8" standalone="no"?>
<!-- Created with Inkscape (http://www.inkscape.org/) -->

<svg
   xmlns:dc="http://purl.org/dc/elements/1.1/"
   xmlns:cc="http://creativecommons.org/ns#"
   xmlns:rdf="http://www.w3.org/1999/02/22-rdf-syntax-ns#"
   xmlns:svg="http://www.w3.org/2000/svg"
   xmlns="http://www.w3.org/2000/svg"
   xmlns:sodipodi="http://sodipodi.sourceforge.net/DTD/sodipodi-0.dtd"
   xmlns:inkscape="http://www.inkscape.org/namespaces/inkscape"
   width="744.09448819"
   height="1052.3622047"
   id="svg2"
   version="1.1"
   inkscape:version="0.47 r22583"
   sodipodi:docname="logo.svg">
  <defs
     id="defs4">
    <inkscape:perspective
       sodipodi:type="inkscape:persp3d"
       inkscape:vp_x="0 : 526.18109 : 1"
       inkscape:vp_y="0 : 1000 : 0"
       inkscape:vp_z="744.09448 : 526.18109 : 1"
       inkscape:persp3d-origin="372.04724 : 350.78739 : 1"
       id="perspective10" />
    <inkscape:perspective
       sodipodi:type="inkscape:persp3d"
       inkscape:vp_x="0 : 0.5 : 1"
       inkscape:vp_y="0 : 1000 : 0"
       inkscape:vp_z="1 : 0.5 : 1"
       inkscape:persp3d-origin="0.5 : 0.33333333 : 1"
       id="perspective8127" />
    <inkscape:perspective
       id="perspective8162"
       inkscape:persp3d-origin="372.04724 : 350.78739 : 1"
       inkscape:vp_z="744.09448 : 526.18109 : 1"
       inkscape:vp_y="0 : 1000 : 0"
       inkscape:vp_x="0 : 526.18109 : 1"
       sodipodi:type="inkscape:persp3d" />
    <inkscape:perspective
       id="perspective2991"
       inkscape:persp3d-origin="0.5 : 0.33333333 : 1"
       inkscape:vp_z="1 : 0.5 : 1"
       inkscape:vp_y="0 : 1000 : 0"
       inkscape:vp_x="0 : 0.5 : 1"
       sodipodi:type="inkscape:persp3d" />
  </defs>
  <sodipodi:namedview
     id="base"
     pagecolor="#ffffff"
     bordercolor="#666666"
     borderopacity="1.0"
     inkscape:pageopacity="0.0"
     inkscape:pageshadow="2"
     inkscape:zoom="0.93780178"
     inkscape:cx="237.38035"
     inkscape:cy="357.50568"
     inkscape:document-units="px"
     inkscape:current-layer="layer1"
     showgrid="false"
     inkscape:window-width="1024"
     inkscape:window-height="716"
     inkscape:window-x="-8"
     inkscape:window-y="-8"
     inkscape:window-maximized="1" />
  <metadata
     id="metadata7">
    <rdf:RDF>
      <cc:Work
         rdf:about="">
        <dc:format>image/svg+xml</dc:format>
        <dc:type
           rdf:resource="http://purl.org/dc/dcmitype/StillImage" />
        <dc:title></dc:title>
      </cc:Work>
    </rdf:RDF>
  </metadata>
  <g
     inkscape:label="Layer 1"
     inkscape:groupmode="layer"
     id="layer1">
    <flowRoot
       xml:space="preserve"
       id="flowRoot2931"
       style="fill:black;stroke:none;stroke-opacity:1;stroke-width:1px;stroke-linejoin:miter;stroke-linecap:butt;fill-opacity:1;font-family:Microsoft Uighur;font-style:normal;font-weight:normal;font-size:10;-inkscape-font-specification:Microsoft Uighur;font-stretch:normal;font-variant:normal;text-anchor:start;text-align:start;writing-mode:lr;line-height:100%"><flowRegion
         id="flowRegion2933"><rect
           id="rect2935"
           width="11.729558"
           height="47.984554"
           x="170.61174"
           y="490.40973" /></flowRegion><flowPara
         id="flowPara2937" /></flowRoot>    <g
       id="g2918">
      <g
         inkscape:export-ydpi="300"
         inkscape:export-xdpi="300"
         inkscape:export-filename="D:\xampp\htdocs\kedai\webapp\tmp\lulelulelogo.png"
         transform="matrix(0.40462566,0,0,0.40041489,-156.79563,206.20787)"
         id="g8074">
        <path
           style="fill:#abc837;stroke:none"
           d="m 1120.804,614.41943 c -29.8229,7.01915 -61.3658,21.38568 -91.9715,9.83477 -7.4286,1.81254 -32.62279,-6.02034 -15.1591,-11.63316 11.3042,-4.44996 38.3602,-2.0267 40.3608,-4.60217 -12.7456,-3.47142 -34.9984,1.08725 -42.1302,-2.02084 33.4304,-19.80244 78.8477,-16.061 108.9,8.4214 z m 8.5662,-55.535 c -17.7437,14.75115 -38.0847,33.7468 -63.1658,29.15178 -10.923,-2.6724 -32.9264,5.81301 -37.3903,-2.31867 15.56,-9.9282 34.3763,-11.63453 51.5221,-17.48537 -14.6655,-5.16253 -29.1614,4.18568 -43.7623,4.13362 9.7582,-10.61026 33.1328,-17.04337 50.3159,-18.10345 14.284,-0.95728 28.7325,0.63633 42.48,4.62204 m 7.3979,-43.50495 c -17.6724,12.82094 -32.8948,34.17078 -56.9516,33.59816 -9.1745,-3.02042 -29.0859,11.12078 -31.3171,0.84647 14.3745,-9.93704 31.1082,-15.71805 47.8747,-20.16213 -17.3817,1.37833 -34.464,6.12262 -50.16,13.695 23.1381,-23.48388 58.2802,-33.72138 90.5539,-27.9775 m -94.2199,-99.1075 c 16.7666,58.83292 4.3816,124.31561 -28.64,175.23357 -20.77229,27.47287 -50.20119,46.98981 -80.99219,61.62323 1.263,-15.86085 19.7858,-17.02453 30.8397,-23.28865 11.7614,-9.50532 23.4991,-19.5909 33.518,-31.17113 32.62849,-38.86035 48.75189,-90.10183 49.65269,-140.4279 -0.051,-14.40919 -1.6654,-28.82561 -4.9954,-42.84984 l 0.3582,0.14916 0.259,0.73156 z m 31.7075,253.9275 c -30.793,-2.64433 -63.9009,0.25802 -91.72239,-15.7374 -16.189,5.763 -16.4953,-22.42581 -0.078,-13.52067 18.54359,-1.02498 36.97479,3.38181 54.14279,10.11682 -18.443,-12.60765 -41.66729,-15.07376 -63.44369,-13.93 31.54869,-13.86791 74.44699,-7.2049 94.03519,23.11567 2.4723,3.23368 4.8015,6.57417 7.0661,9.95558 z m -127.53369,-198.62 c 32.2944,0.72877 66.90159,21.87328 72.84609,55.39198 7.0108,6.78667 -4.4085,26.80344 -6.5903,9.26156 -7.2526,-15.36705 -17.53779,-29.94595 -32.14429,-39.08926 15.739,20.13261 31.64009,43.86319 29.20789,70.65624 -5.2873,-25.15713 -26.68289,-41.38758 -42.89029,-59.51699 -8.7458,-11.00831 -15.8811,-23.37387 -20.4294,-36.70353 m 1.6453,38.8575 c 28.6434,12.99382 52.81769,43.68394 47.2108,76.46576 -12.2946,-6.70225 -5.1536,-36.09883 -19.8223,-34.67083 5.402,13.68583 8.7576,28.39312 6.7611,43.22997 -0.6179,7.1319 -6.3437,25.65416 -6.3812,9.38762 -5.4955,-32.58854 -29.5794,-60.31151 -27.7688,-94.41257 m -25.6952,26.4113 c 23.1308,14.05895 45.9056,37.64235 43.5174,66.75785 4.3953,10.01165 -16.0682,27.36113 -11.0519,8.2026 2.02,-14.27831 -6.1608,-38.36553 -11.4362,-43.76001 8.2937,19.02312 7.1315,40.58569 3.0484,60.48451 0.7522,-30.96634 -30.1824,-54.10336 -24.5995,-85.75576 l 0.2078,-2.96944 0.3167,-2.9598 m 225.87989,-53.81008 c -22.2888,12.80779 -43.8033,29.29439 -69.9772,32.89299 -5.7343,5.93888 -27.1786,5.48018 -10.9604,-3.11934 7.8599,-7.09053 32.9033,-15.34964 31.6128,-19.08641 -14.0291,3.38133 -26.8428,10.30959 -40.6041,14.50965 20.7636,-25.22606 59.0005,-42.45413 89.9289,-25.19689 z m -16.2363,-45.59 c -19.0767,25.21314 -46.8874,41.39996 -73.4507,57.54194 9.8308,-17.58346 26.739,-29.33581 42.4207,-41.26194 -13.4508,-0.27907 -26.9094,27.37303 -35.8747,17.51622 11.3924,-24.92325 41.3209,-34.68511 66.9047,-33.79622 z m -5.0987,-47.73 c -2.174,23.32227 -19.1497,43.17231 -40.1845,52.35365 -9.4038,5.1522 -21.406,21.4305 -26.5812,22.8559 6.3251,-17.59515 19.7597,-31.10596 31.4276,-45.24169 -14.4825,6.36957 -20.5034,23.37686 -35.106,29.56895 3.7332,-33.97141 36.8989,-60.23665 70.4441,-59.53681 z m -37.9513,-34.0875 c 0.3168,20.28639 -6.2159,41.61393 -21.4369,55.65231 -0.2256,10.05681 -16.1687,14.87681 -8.1761,1.06555 2.4707,-5.55057 8.9439,-19.42469 4.8562,-20.02511 0.3935,7.38942 -14.4061,23.87595 -10.9181,7.02647 4.62,-18.94189 18.5008,-34.8848 35.6749,-43.71922 z M 1020.686,331.6818 c 18.7187,6.64756 35.4689,26.14469 30.8834,46.96591 5.0596,7.81446 -11.9658,16.28024 -6.5176,4.0674 2.4071,-7.37383 -12.2985,-32.62381 -5.696,-12.94501 4.5302,5.96953 1.8968,32.43533 -5.6014,17.46037 -7.7414,-17.39018 -15.8083,-36.05535 -13.0684,-55.54867 z m -62.10059,109.36073 c 36.099,-2.10926 70.71389,27.8599 73.91349,63.85569 -7.2978,-11.19826 -19.1076,-32.36442 -26.901,-34.73311 12.5814,15.10579 20.5685,33.5613 25.28,52.52742 -13.8392,-23.97992 -36.16149,-41.0876 -56.68209,-58.90915 -5.8906,-7.08458 -10.7038,-14.96741 -15.6104,-22.74085 z m 82.28129,25.52 c -11.6872,-14.11435 -22.6532,-30.20674 -39.849,-38.07656 17.1226,14.78701 30.5426,34.27739 36.5593,56.20822 -14.4713,-20.99002 -35.8358,-35.50811 -54.55339,-52.2594 -13.3445,-8.46734 -9.6505,-32.98553 8.424,-22.53921 24.65699,9.16682 41.14689,32.58392 49.41909,56.66695 z m -63.13759,-95.845 c 32.31879,0.72456 61.28899,29.62862 61.73899,62.01734 -6.8699,-6.23546 -16.2371,-27.65497 -21.4795,-25.12369 4.1505,6.52239 18.4295,24.21241 12.551,26.43623 -16.2988,-15.8004 -40.79829,-26.20151 -46.85759,-50.06935 -1.9986,-4.41183 -4.5449,-8.59862 -5.9529,-13.26053 z"
           id="path3416-4" />
        <g
           id="g4206"
           transform="matrix(-1.25,0,0,-1.25,1297.3419,1418.67)"
           style="fill:#cdde87">
          <g
             id="g4208"
             style="fill:#cdde87">
            <g
               id="g4214"
               style="fill:#cdde87">
              <g
                 id="g4216"
                 style="fill:#cdde87">
                <path
                   d="m 185.438,549.211 c -2.292,0.166 -4.032,2.506 -4.773,6.421 -0.352,1.855 -0.509,3.689 -0.509,5.484 0,13.666 9.13,25.067 11.253,26.644 -0.003,-0.006 -0.015,-0.035 -0.015,-0.035 -1.785,-3.313 -2.416,-6.374 -2.416,-9.28 0,-3.581 0.959,-6.924 1.9,-10.207 0.849,-2.959 1.666,-5.807 1.666,-8.63 0,-1.364 -0.191,-2.722 -0.661,-4.085 -1.361,-3.955 -3.95,-6.492 -6.445,-6.312 M 145.484,537.36 c -1.372,0.234 -2.266,2.077 -2.225,4.585 l 0,10e-4 c 0.308,18.839 6.206,28.712 8.319,30.177 0.257,0.178 0.356,0.155 0.357,0.155 0.05,-0.048 0.14,-0.495 -0.402,-1.782 -3.02,-7.183 -2.037,-12.462 -1.17,-17.12 0.645,-3.462 1.254,-6.733 0.077,-10.263 -1.531,-4.609 -3.627,-5.979 -4.956,-5.753 m 2.745,132.632 c -8.104,-14.861 -10.626,-24.894 -7.711,-30.674 4.277,-8.464 14.975,-14.418 23.57,-19.202 7.825,-4.356 14.583,-8.117 13.825,-12.169 -0.346,-1.847 -1.532,-3.158 -3.34,-3.692 -3.252,-0.96 -7.53,0.716 -10.896,4.268 l -1.763,2.006 c -8.101,9.469 -29.619,34.622 -70.437,2.956 -0.073,-0.056 -0.109,-0.148 -0.094,-0.239 1.929,-11.382 12.918,-17.442 30.945,-17.065 8.431,0.173 13.589,-2.585 13.705,-5.351 0.093,-2.219 -3.249,-5.029 -12.975,-5.645 -4.882,-0.309 -10.002,0.396 -15.422,1.143 -16.411,2.26 -33.381,4.597 -46.2,-20.654 -0.038,-0.073 -0.036,-0.161 0.004,-0.234 0.077,-0.139 7.951,-13.808 30.019,-2.358 10.053,5.217 13.019,4.716 13.892,3.954 0.752,-0.657 0.428,-1.858 0.254,-2.344 -1.187,-3.309 -6.092,-5.536 -11.772,-8.114 -8.974,-4.074 -20.144,-9.144 -24.199,-21.188 -4.364,-12.967 3.78,-27.453 8.408,-32.445 0.069,-0.075 0.176,-0.1 0.271,-0.064 1.513,0.571 3.34,1.001 5.456,1.499 5.874,1.382 13.919,3.275 21.292,10.115 7.784,7.219 9.404,14.633 11.119,22.482 1.476,6.756 3.002,13.742 8.724,20.898 4.405,5.502 7.326,4.287 8.117,3.784 1.514,-0.964 1.991,-3.154 1.086,-4.985 -12.699,-25.723 -7.253,-31.049 0.991,-39.11 2.781,-2.719 5.933,-5.802 8.756,-10.114 0.039,-0.057 0.1,-0.096 0.168,-0.108 0.068,-0.012 0.143,0.006 0.195,0.048 l 3.236,2.466 c 7.354,5.553 14.301,10.798 17.403,20.367 2.084,6.426 -0.529,13.94 -3.056,21.204 -1.816,5.218 -3.53,10.146 -3.455,14.427 0.117,6.58 7.28,15.495 12.844,17.908 1.314,0.569 3.133,1.02 4.338,-0.068 1.677,-1.513 3.549,-5.673 -2.76,-16.541 -11.375,-19.599 -0.175,-34.736 7.236,-44.754 4.386,-5.926 7.554,-10.209 4.939,-13.04 -0.079,-0.085 -0.088,-0.213 -0.024,-0.309 0.065,-0.096 0.187,-0.135 0.296,-0.094 0.262,0.099 26.181,10.069 26.325,27.067 0.085,10.11 -5.188,20.132 -9.426,28.184 -2.854,5.424 -5.319,10.108 -5.116,13.05 0.293,4.32 1.217,6.901 2.824,7.891 1.839,1.133 4.416,0.049 6.908,-1.001 1.651,-0.694 3.211,-1.351 4.606,-1.425 1.465,-0.08 2.645,1.195 2.872,3.101 0.265,2.236 -0.894,4.908 -4.066,5.491 0,0.001 -4.297,0.958 -4.297,0.958 -11.282,2.728 -26.734,6.464 -67.729,-17.843 -28.139,-16.685 -45.142,-32.216 -50.537,-46.161 -0.193,-0.5 -0.372,-0.954 -0.475,-1.057 -0.002,0.039 -0.052,0.122 -0.087,0.3 -0.001,0.009 -0.015,0.093 -0.015,0.259 0,1.765 1.478,12.794 33.787,41.067 1.21,1.058 1.819,1.975 1.819,2.735 0,0.184 -0.036,0.359 -0.107,0.524 -0.63,1.462 -3.97,1.682 -6.639,1.426 l -3.152,-0.455 c -5.94,-0.927 -18.301,-2.858 -21.511,-0.338 -0.452,0.354 -0.692,0.773 -0.736,1.281 -0.043,0.511 0.117,0.944 0.489,1.323 2.455,2.501 13.188,1.801 21.024,1.29 l 6.884,-0.353 c 6.551,-0.082 32.244,2.162 38.262,14.625 0.9,1.864 0.957,3.578 0.17,5.094 -2.642,5.092 -14.334,7.024 -22.871,8.435 -3.722,0.615 -6.936,1.146 -8.376,1.782 -4.962,1.782 -12.296,5.094 -12.229,6.938 0.007,0.205 0.264,0.384 0.477,0.498 3.491,1.855 21.129,1.095 28.463,-3.48 0,-0.001 4.176,-2.925 4.176,-2.925 7.713,-5.67 18.276,-13.436 40.638,-9.83 l 2.032,0.227 c 2.649,0.242 5.653,0.516 6.176,2.416 0.514,1.866 -0.863,5.844 -18.676,18.791 -5.817,4.23 -15.772,16.644 -15.703,21.891 0.012,0.866 0.288,1.472 0.844,1.854 0.573,0.393 1.378,0.475 2.392,0.243 5.311,-1.214 16.053,-11.255 24.147,-25.361 9.411,-16.402 21.241,-24.133 28.792,-24.519 0.983,-0.051 1.548,0.153 1.727,0.622 0.559,1.463 -3.448,4.846 -8.745,9.117 l -3.078,2.544 c -6.412,5.742 -8.064,11.729 -11.063,22.599 l -0.201,0.725 c -8.035,29.065 -13.869,39.426 -47.749,41.566 -0.096,0.006 -0.188,-0.044 -0.235,-0.13"
                   style="fill:#cdde87;stroke:none"
                   id="path4224" />
              </g>
            </g>
          </g>
        </g>
        <g
           id="g3876"
           transform="matrix(1.25,0,0,-1.25,358.32901,1146.1015)"
           style="fill:#89a02c;fill-opacity:1">
          <g
             id="g3878"
             style="fill:#89a02c;fill-opacity:1">
            <g
               id="g3884"
               style="fill:#89a02c;fill-opacity:1">
              <g
                 id="g3886"
                 style="fill:#89a02c;fill-opacity:1">
                <path
                   d="m 484.438,536.73 c -4.313,3.455 -9.203,7.371 -16.02,8.255 -1.254,0.163 -1.367,0.454 -1.368,0.457 l 0,0.003 c 0,0.014 0.02,0.071 0.133,0.157 1.49,1.15 12.975,2.408 28.988,-6.769 2.469,-1.416 3.872,-4.152 3.127,-6.098 -0.629,-1.643 -2.63,-2.235 -5.489,-1.625 -3.213,0.688 -6.205,3.084 -9.371,5.62 m -38.833,-15.623 c 4.255,0.353 15.102,0.349 23.908,-7.298 2.992,-2.6 4.194,-5.339 3.215,-7.329 -0.941,-1.91 -3.749,-2.699 -7.158,-2.01 -3.83,0.773 -6.679,3.713 -9.696,6.825 -4.083,4.212 -8.308,8.563 -15.608,8.765 0.672,0.304 2.45,0.807 5.339,1.047 m -13.827,-32.33 c -1.584,1.296 -2.835,2.321 -3.008,3.569 -0.033,0.228 0.048,0.404 0.255,0.553 1.108,0.803 4.918,0.381 8.824,-1.528 3.108,-1.519 10.375,-6.094 10.709,-15.741 0.046,-1.383 -2.026,-4.043 -4.231,-4.326 -2.095,-0.268 -3.723,1.696 -4.585,5.532 -1.491,6.642 -5.232,9.705 -7.964,11.941 m -46.378,57.008 -0.006,0 0.006,0 z m 86.418,43.032 c -1.384,-4.844 -2.692,-9.421 -4.715,-13.32 -3.842,-7.401 -7.207,-9.043 -8.919,-8.201 -2.346,1.154 -2.81,6.843 0.53,14.023 6.867,14.773 6.072,26.738 -2.239,33.689 -0.075,0.063 -0.179,0.076 -0.267,0.034 -40.021,-18.924 -27.924,-48.63 -23.369,-59.813 l 0.947,-2.406 c 1.904,-5.356 0.964,-9.527 -0.812,-11.286 -1.053,-1.041 -2.386,-1.306 -3.857,-0.766 -3.49,1.283 -4.009,8.664 -4.608,17.21 -0.658,9.379 -1.479,21.051 -6.627,28.585 -3.515,5.143 -12.392,7.784 -27.14,8.072 -0.106,0.002 -0.203,-0.064 -0.239,-0.164 -10.655,-29.095 -4.571,-38.814 15.532,-59.171 7.379,-7.47 7.461,-7.737 9.571,-14.572 l 0.44,-1.418 c 0.681,-2.188 0.479,-4.007 -0.567,-5.122 -0.932,-0.992 -2.502,-1.366 -4.1,-0.976 -2.01,0.49 -3.551,1.989 -4.123,4.01 -7.896,27.899 -20.637,28.56 -21.795,28.561 -7.157,4.88 -23.652,-1.86 -27.056,-4.474 -0.093,-0.073 -0.124,-0.201 -0.072,-0.308 1.122,-2.32 6.642,-21.541 6.697,-21.734 5.927,-16.151 11.328,-19.24 18.314,-21.842 4.873,-1.816 9.184,-1.843 14.883,-0.091 8.294,2.546 11.828,-1.033 13.727,-2.955 0.78,-0.79 1.344,-1.361 1.874,-0.909 0.19,0.162 0.393,0.481 0.288,1.084 -0.372,2.145 -4.445,6.655 -12.005,9.52 -13.747,5.217 -22.161,16.231 -24.235,21.947 -0.419,1.155 -0.439,1.796 -0.318,2.012 0.351,0.624 1.049,0.963 2.076,1.006 5.304,0.223 18.342,-7.772 27.523,-21.301 2.941,-4.331 5.77,-6.294 8.41,-5.833 4.32,0.755 6.385,7.578 6.915,9.651 1.763,6.895 -0.494,19.534 -12.114,34.33 -7.954,10.134 -10.198,21.599 -8.917,27.963 0.386,1.917 1.075,3.238 1.94,3.719 0.38,0.211 0.88,0.155 1.485,-0.169 5.037,-2.694 14.708,-21.739 15.256,-28.511 1.559,-19.323 7.627,-22.341 9.45,-22.806 1.715,-0.437 3.387,0.221 4.367,1.714 11.981,18.317 8.346,31.989 5.941,41.035 -0.639,2.404 -1.191,4.479 -1.406,6.331 -0.911,7.872 5.785,18.854 8.803,20.886 0.452,0.304 0.814,0.41 1.018,0.298 1.482,-0.813 1.434,-8.464 1.041,-13.409 -0.021,-1.51 -0.773,-4.427 -1.642,-7.804 -2.018,-7.838 -4.783,-18.573 -1.552,-23.074 0.914,-1.273 2.263,-1.984 4.009,-2.112 11.875,-0.872 21.355,19.186 23.978,25.355 l 0.996,2.385 c 2.718,6.551 7.776,18.745 11.398,19.786 0.481,0.138 0.908,0.067 1.308,-0.217 3.33,-2.37 -4.154,-13.948 -7.351,-18.892 l -1.514,-2.407 c -1.079,-1.917 -2.276,-5.205 -1.159,-6.405 0.578,-0.62 1.627,-0.576 3.121,0.128 33.746,15.911 47.264,10.198 48.694,9.494 0.625,-0.307 0.836,-0.518 0.92,-0.636 -0.241,-0.014 -0.734,0.036 -1.271,0.091 -15.857,1.667 -35.749,-5.29 -59.123,-20.675 -34.81,-22.913 -47.597,-58.119 -52.122,-77.065 -0.646,-2.687 0.804,-4.278 1.458,-4.837 1.032,-0.884 2.337,-1.226 3.245,-0.851 0.598,0.246 0.958,0.781 1.017,1.504 0.053,0.634 0.509,2.089 1.587,2.543 0.85,0.358 1.915,0.017 3.158,-1.013 1.497,-1.237 1.228,-3.822 0.889,-7.096 -0.448,-4.321 -1.005,-9.698 2.339,-14.503 4.602,-6.618 10.698,-10.574 18.12,-11.757 10.002,-1.594 19.259,2.44 22.175,4.643 0.064,0.048 0.104,0.12 0.104,0.199 -10e-4,0.079 -0.035,0.15 -0.099,0.197 l -0.706,0.517 c -2.639,1.875 -7.552,5.367 -7.629,21.126 -0.081,17.077 -14.035,28.66 -21.181,29.824 -3.569,0.582 -5.823,1.681 -6.891,3.358 -0.823,1.293 -0.939,2.928 -0.356,4.999 0.394,1.402 1.191,2.345 2.367,2.802 2.095,0.813 5.37,0.039 8.766,-2.071 2.218,-1.377 4.87,-5.349 7.941,-9.949 4.972,-7.446 11.158,-16.713 19.467,-21.562 13.549,-7.91 30.938,8.909 31.112,9.08 0.081,0.079 0.099,0.203 0.043,0.301 -0.056,0.099 -0.171,0.148 -0.281,0.119 -3.174,-0.827 -5.413,3.819 -8.513,10.248 -5.238,10.866 -13.154,27.286 -32.854,27.094 -10.896,-0.107 -13.514,3.41 -14.105,5.516 -0.465,1.663 0.784,3.062 1.913,3.942 4.155,3.24 13.301,4.795 18.426,1.866 3.4,-1.943 7.28,-6.224 11.389,-10.757 5.912,-6.523 12.025,-13.269 17.912,-14.579 8.742,-1.947 15.447,1.351 22.544,4.84 l 3.121,1.515 c 0.06,0.03 0.108,0.084 0.13,0.15 0.02,0.065 0.014,0.136 -0.018,0.196 -2.145,3.926 -3.56,7.688 -4.928,11.326 -4.503,11.978 -8.06,21.439 -33.969,23.097 -1.868,0.12 -3.468,1.678 -3.568,3.474 -0.126,2.261 2.094,4.018 5.938,4.698 7.736,1.367 14.91,-0.932 21.847,-3.153 8.208,-2.63 15.961,-5.114 24.551,-2.055 8.125,2.893 12.566,8.679 15.808,12.902 1.166,1.519 2.173,2.831 3.174,3.813 0.071,0.069 0.094,0.173 0.06,0.265 -2.162,5.911 -11.905,22.941 -24.154,25.517 -11.057,2.323 -20.345,-5.297 -27.807,-11.421 -4.71,-3.864 -8.777,-7.201 -11.811,-6.629 -0.455,0.086 -1.539,0.39 -1.767,1.36 -0.311,1.329 0.859,4.072 8.197,9.599 17.111,12.887 9.431,25.48 9.095,26.009 -0.043,0.069 -0.117,0.112 -0.198,0.116 -24.737,1.278 -29.077,-13.909 -33.276,-28.597"
                   style="fill:#89a02c;fill-opacity:1;stroke:none"
                   id="path3894" />
              </g>
            </g>
          </g>
        </g>
        <path
           style="fill:#ff5555;fill-opacity:1;stroke:none"
           d="m 801.11045,708.45655 c -6.39553,-5.36688 -6.21223,-20.18426 -18.24723,-14.90219 -11.61954,-1.3389 -14.39846,-15.96532 -8.91229,-24.64156 4.69279,-9.62134 13.93575,-16.28801 17.82381,-26.38019 -9.14894,-4.99435 -13.78404,7.71245 -16.60233,14.21751 -4.44745,9.37442 -8.86098,20.73705 -19.12845,24.94791 -11.85949,3.7092 -7.56034,-16.03944 -17.16159,-12.46074 -9.68602,3.37904 -15.57916,-7.27885 -7.39314,-13.19988 0.16982,-10.56476 1.34883,-21.82948 12.4653,-26.90893 13.73418,-9.37588 32.0276,-11.82958 47.68222,-6.13221 -7.35793,7.17932 -20.23373,2.94509 -27.73676,10.6564 -7.69575,8.13585 4.77735,16.42523 11.75785,9.22088 7.48261,-1.96792 20.56115,-16.73115 24.88468,-5.56839 -3.75647,6.96319 -13.94686,22.2569 1.04488,22.89907 9.47133,-3.37407 10.52219,15.49363 18.53118,6.27733 4.96088,-9.08841 -3.96623,-17.33906 -4.33146,-26.51073 2.36158,-10.83234 5.44172,5.20588 7.35577,9.02618 5.9836,13.102 19.30098,24.09779 17.75111,39.7741 -4.24705,8.96676 -15.14026,12.0553 -20.14055,20.63442 -5.57724,4.39469 -14.98138,5.26635 -19.643,-0.94898 z m -8.09443,-110.63246 c -18.51818,-2.49741 -38.83894,-11.84071 -45.26828,-30.74543 -4.51316,-10.49733 11.22933,-14.00966 5.98988,-23.38665 -0.60615,-11.69577 14.92539,-19.2857 23.31599,-10.715 7.00985,7.36943 15.88226,-5.90542 22.20061,4.27913 7.77551,8.16904 4.60472,19.36419 3.56462,29.19017 -0.27791,9.05236 1.80282,18.02766 4.9856,26.45526 -6.12639,2.39251 -8.11399,-12.50825 -12.23774,-16.69903 -3.41219,-6.78782 -8.17764,-18.18158 -17.7455,-14.76164 -6.4302,6.92115 2.77942,15.99239 5.77697,22.7619 2.46081,4.09088 18.94705,12.60926 9.41785,13.62129 l 0,0 z m 66.79537,-11.59854 c -11.9018,5.68908 -21.62672,15.02074 -29.83947,25.1871 8.92117,3.69585 15.2244,-11.52091 23.73325,-5.58689 1.96137,4.82442 -2.80568,10.90059 5.8876,9.86704 11.12706,-3.90485 16.52722,13.33697 4.51726,15.04809 -6.27223,1.80921 -18.16135,-7.34512 -13.0608,3.75616 3.3587,12.3444 -15.4733,9.67589 -17.67986,0.56739 -1.99789,-5.06652 -9.3345,-12.03479 -9.50966,-2.29471 0.88848,9.14119 5.78369,17.69507 11.23706,24.9539 6.52538,7.68981 15.53517,15.28501 26.11577,15.23419 11.32925,-1.06466 18.83101,-12.23104 19.38399,-22.92741 4.48318,-8.50414 17.1981,-7.07749 21.56457,-16.23801 6.67833,-9.18435 6.08992,-24.77441 -4.69937,-30.63039 -6.81218,-7.3946 -9.90139,-21.41186 -22.72742,-19.73115 -5.10499,-0.16781 -10.16998,1.00125 -14.92292,2.79469 z m -4.7725,-57.9025 c -8.58537,1.04636 -10.14196,19.21436 -17.92561,8.51813 -9.29755,-5.36511 -17.64747,4.51221 -21.96384,11.73076 -8.61459,15.88659 -5.83011,35.26211 0.23936,51.47733 4.93493,4.33925 -1.03213,-8.18585 0.67985,-10.85841 0.8432,-6.57766 1.86344,-19.64344 9.70283,-20.27805 2.0959,5.46621 7.63587,9.7358 9.65392,1.28243 5.53355,-9.03786 19.94258,-0.10333 9.63323,7.40052 -7.26495,8.23571 -18.16076,16.38969 -18.68593,28.03025 6.90613,-1.1964 11.85396,-12.54435 19.76371,-15.54844 8.96918,-6.34497 19.73555,-9.39066 29.02323,-15.04496 9.74396,-6.26367 10.56316,-20.99062 0.024,-26.00631 -0.0776,-10.10772 -3.0795,-24.12124 -16.61855,-21.57234 l -1.79276,0.33869 -1.73344,0.5304 0,0 z"
           id="path7488" />
        <path
           id="path7490"
           d="m 710.32008,628.69824 c -3.71741,-2.95978 -14.2536,2.03022 -12.17473,-6.26585 -2.13515,-3.79342 -9.83648,-7.59261 -3.39716,-11.83874 4.82689,-3.11142 -1.30432,-9.18125 4.51954,-11.78576 3.99196,-3.49731 6.58179,1.76346 4.43138,5.0588 1.29711,7.26549 10.61659,5.88851 15.27831,2.84865 4.70107,-1.51968 2.44231,-6.2871 -1.71465,-5.80684 -6.40037,-1.80574 -0.35766,-10.81439 3.63342,-5.28667 1.45992,5.34055 6.77157,10.18342 12.06924,6.1364 3.69632,-2.41613 0.57109,-5.57721 -2.67717,-5.74217 -4.73685,-2.04874 -1.50405,-10.81644 2.84826,-6.59367 2.14237,4.58032 4.58874,12.66397 11.29566,9.71203 4.56702,-2.50333 -0.28588,-6.60314 -2.91918,-7.9854 -3.21852,-5.49356 7.15336,-8.39638 6.12001,-1.47177 -0.75658,7.0273 6.10425,9.115 11.73568,7.57155 10.29371,-1.25692 20.78081,-0.0816 30.84698,2.24778 9.88152,2.53294 19.68978,6.8756 26.98893,14.13059 3.5321,5.66411 -3.1721,13.82723 -9.43357,11.17691 -7.39998,-1.77272 -12.91337,-7.56006 -19.99409,-10.11698 -13.12803,-6.39212 -27.47989,-10.95647 -42.20205,-10.90968 -6.89361,1.24911 0.36199,11.69491 -6.20175,12.97687 -6.13546,-0.90885 -2.58003,-9.07172 0.46785,-10.69599 -2.36856,-4.95518 -11.77363,-0.72419 -11.29531,4.4099 0.87926,3.97427 -0.17059,11.55249 -5.68802,7.39892 -4.27218,-4.50353 5.91167,-5.99397 3.16319,-10.17383 -4.43297,-2.61624 -9.44246,2.54549 -12.68251,5.30677 -4.73442,4.80198 3.59693,9.45141 1.22056,14.46099 -1.00786,1.27175 -2.72688,1.53116 -4.23882,1.23719 z"
           style="fill:#ffb380;fill-opacity:1;stroke:none" />
        <path
           id="path6656"
           style="fill:#ff2a2a;fill-opacity:1;stroke:none"
           d="m 869.78782,693.99479 c 3.68565,-5.84076 12.46756,-4.6155 16.07297,-10.54381 -2.51162,-6.45165 -0.65712,-15.86246 6.68816,-18.11567 9.96634,-3.5663 20.3108,2.22982 27.44457,8.93719 4.92239,3.89483 9.85187,7.98347 15.71824,10.38658 4.51295,-5.38032 -2.28806,-11.49528 -7.25378,-13.23508 -10.8062,-5.65218 -23.69525,-9.31828 -30.94043,-19.87147 -3.18604,-5.38853 1.28308,-14.94134 8.18027,-12.82113 6.72672,0.23763 4.32946,-8.35289 2.32013,-11.69835 0.15532,-7.14147 9.67326,-9.50675 12.88417,-3.20724 6.03594,3.91476 14.29361,-1.66417 19.79881,3.71131 14.95642,12.43238 20.62484,34.03767 15.9841,52.61611 -0.51561,3.08204 -1.98522,7.67886 -3.99295,2.66016 -2.16624,-4.95005 -0.24181,-10.86794 -3.26219,-15.56286 -1.92105,-5.24042 -4.16367,-12.2978 -10.50888,-13.32297 -5.68966,-0.51629 -7.06618,7.07423 -5.17549,11.26012 2.27531,5.48809 5.83336,10.36452 8.31275,15.78123 0.91159,3.66911 6.23575,8.49645 2.54961,11.61111 -4.43966,2.70341 -9.0948,-1.21986 -12.61371,-3.74234 -3.86934,-4.23455 -12.94932,-3.68808 -14.12602,2.68356 1.90036,5.10448 0.4642,10.80136 -5.51857,12.30392 -7.69404,2.65833 -1.27365,12.87025 5.25583,10.60658 8.21386,-1.94879 16.18077,-5.79913 24.78591,-5.81117 3.67417,5.86562 -7.98202,3.65282 -10.99255,6.35299 -13.07764,5.69128 -23.45109,17.64548 -38.25059,19.11698 -7.03307,0.7547 -11.29737,-6.047 -14.43644,-11.2655 -3.8334,-5.09969 -11.15834,-7.63016 -12.53272,-14.43933 -1.73518,-4.8969 -0.86778,-11.22704 3.6088,-14.39092 z m 110.63246,-8.09443 c 2.12491,-15.27338 8.49112,-30.85859 21.05372,-40.44626 5.5067,-3.97454 12.6428,-6.28881 19.4018,-4.68205 3.1787,1.48402 2.8592,6.31972 6.347,7.37092 4.0634,0.0596 8.0766,-2.7361 12.1619,-1.08033 7.8154,3.02147 12.2318,13.34754 7.8909,20.78875 -2.5062,2.28695 -6.9273,5.78882 -4.1618,9.57369 2.795,3.31444 3.4589,8.7969 0.1959,12.04348 -5.4995,7.28503 -15.7708,9.44863 -24.2748,7.05293 -8.9338,-1.66229 -18.2104,-0.81549 -26.83224,1.96846 -2.8539,0.48187 -6.53863,2.62961 -8.77049,2.42181 -0.36735,-4.02177 4.42453,-4.76623 7.13194,-6.28697 8.9569,-5.22884 19.28109,-8.74913 26.39579,-16.62663 2.3265,-3.22104 0.9938,-9.17226 -3.395,-9.66522 -6.0601,-0.40557 -11.0983,3.5615 -16.2055,6.19235 -4.9287,3.18983 -9.33025,7.31451 -12.40685,12.34506 1.90686,4.92101 -8.37429,2.69531 -4.53227,-0.96999 z m 11.59854,66.79538 c -5.68391,-11.9053 -15.02489,-21.6226 -25.1871,-29.8395 -2.42365,6.3945 3.90607,11.1275 6.20202,16.4339 3.91693,4.8553 -4.36435,12.9732 -7.44187,6.0942 -7.06084,2.8065 0.94991,12.9341 -5.76735,16.8817 -5.59699,5.1436 -13.90608,-1.5435 -12.7675,-8.2428 -0.75809,-4.0929 6.5377,-10.3448 1.9704,-12.5679 -3.94679,3.6042 -12.30788,5.4105 -13.59595,-1.6827 -0.9765,-8.4794 6.96461,-14.9591 14.33985,-17.2322 5.86917,-5.44505 -5.75264,-7.61275 -9.24694,-4.61447 -15.42174,3.55807 -28.70695,15.13827 -34.65425,29.74887 -2.38814,8.2422 2.0114,17.5519 9.4308,21.6022 5.12509,4.9793 15.37701,1.3112 18.23801,9.1651 1.70372,6.7388 5.48864,12.6273 11.16173,16.6895 8.50727,6.0454 21.80524,6.0242 28.88212,-2.2507 3.26708,-7.5724 12.84023,-8.137 17.8763,-13.8336 5.06678,-7.8388 3.72232,-18.0727 0.55973,-26.3516 z m 57.90248,-4.7725 c -2.3584,-6.0372 -8.1384,-9.8427 -13.895,-12.24 4.4049,-3.2931 9.0068,-9.1946 6.2858,-14.9008 -6.5302,-12.36597 -21.0616,-18.38902 -34.5582,-18.11428 -10.68431,-10e-4 -21.40533,2.20591 -31.25363,6.29812 -2.94883,3.69129 4.97617,0.0375 6.74687,0.28009 8.72327,-1.21761 17.89196,0.95705 25.17066,5.82924 4.6231,4.55163 -2.2097,5.40813 -5.2351,6.66913 -2.4726,4.6363 5.386,5.9102 7.0026,9.7231 3.4458,2.9901 2.8542,9.9277 -2.4955,9.9887 -5.9267,0.1562 -8.90732,-5.9387 -12.94368,-9.2475 -6.27225,-6.3537 -13.86391,-12.0773 -22.86205,-13.6326 -1.49008,4.1991 5.65865,5.6293 7.23297,9.1587 9.05032,9.2521 15.22634,20.8368 19.95358,32.7786 3.02178,7.0171 8.29008,14.252 16.44488,15.2691 5.1046,0.9326 11.7258,-1.5452 12.5039,-7.237 2.8397,-4.534 9.3706,1.1936 13.6054,-1.8966 5.7425,-1.4059 9.3513,-7.028 9.2762,-12.7589 0.073,-2.0269 -0.2337,-4.0767 -0.9797,-5.9671 z" />
        <path
           style="fill:#ff9955;fill-opacity:1;stroke:none"
           d="m 949.54613,603.20442 c 2.95978,-3.71741 -2.03022,-14.2536 6.26585,-12.17473 3.79342,-2.13515 7.59261,-9.83648 11.83874,-3.39716 3.11142,4.82689 9.18125,-1.30432 11.78576,4.51954 3.49731,3.99196 -1.76346,6.58179 -5.0588,4.43138 -7.26549,1.29711 -5.88851,10.61659 -2.84865,15.27831 1.51968,4.70107 6.2871,2.44231 5.80684,-1.71465 1.80574,-6.40037 10.81439,-0.35766 5.28667,3.63342 -5.34055,1.45992 -10.18342,6.77157 -6.1364,12.06924 2.41613,3.69632 5.57721,0.57109 5.74217,-2.67717 2.04874,-4.73685 10.81644,-1.50405 6.59367,2.84826 -4.58032,2.14237 -12.66397,4.58874 -9.71203,11.29566 2.50333,4.56702 6.60314,-0.28588 7.9854,-2.91918 5.49356,-3.21852 8.39638,7.15336 1.47177,6.12001 -7.0273,-0.75658 -9.115,6.10425 -7.57155,11.73568 1.25692,10.29371 0.0816,20.78081 -2.24778,30.84698 -2.53294,9.88152 -6.8756,19.68978 -14.13059,26.98893 -5.66411,3.5321 -13.82723,-3.1721 -11.17691,-9.43357 1.77272,-7.39998 7.56006,-12.91337 10.11698,-19.99409 6.39212,-13.12803 10.95647,-27.47989 10.90968,-42.20205 -1.24911,-6.89361 -11.69491,0.36199 -12.97687,-6.20175 0.90885,-6.13546 9.07172,-2.58003 10.69599,0.46785 4.95518,-2.36856 0.72419,-11.77363 -4.4099,-11.29531 -3.97427,0.87926 -11.55249,-0.17059 -7.39892,-5.68802 4.50353,-4.27218 5.99397,5.91167 10.17383,3.16319 2.61624,-4.43297 -2.54549,-9.44246 -5.30677,-12.68251 -4.80198,-4.73442 -9.45141,3.59693 -14.46099,1.22056 -1.27175,-1.00786 -1.53116,-2.72688 -1.23719,-4.23882 z"
           id="path6658" />
        <path
           id="path6662"
           style="fill:#677821;fill-opacity:1;stroke:none"
           d="m 877.72095,724.01241 c -11.23174,-1.25185 -21.03066,-9.48713 -24.96527,-19.97171 -2.84117,-6.67592 -5.38495,-13.94748 -4.51729,-21.2989 0.57149,-1.76431 1.06209,-5.66454 2.52729,-2.1889 6.94731,9.95126 15.81743,18.87865 26.77205,24.3271 6.66754,3.39146 14.51362,3.96985 21.74897,2.33177 3.11829,-0.81987 8.77854,-2.76955 6.63591,-6.99254 -1.97023,-3.20521 -6.21423,-3.43805 -9.50681,-4.45069 -9.41657,-1.93967 -19.82768,-1.34197 -28.05461,-7.08177 -4.1546,-2.79368 -7.41975,-6.63716 -10.96724,-10.11856 6.49608,-0.27146 13.76381,-0.91091 18.46846,-5.98112 2.72777,-2.65178 4.23752,-6.27092 6.91421,-8.96602 4.72602,-2.37987 10.12923,0.006 14.5197,2.06527 6.72849,3.26588 12.55155,8.62862 15.54237,15.56461 3.9095,7.69702 7.18992,15.71922 9.79574,23.94832 0.63152,4.21419 -2.97212,7.49287 -5.88563,9.97231 -9.39687,7.20534 -21.66821,9.44777 -33.26595,9.29328 -1.9264,-0.0582 -3.85022,-0.20728 -5.7619,-0.45245 z m -61.41341,66.85496 c -12.29431,-6.7321 -20.99744,-19.80521 -22.05685,-33.83625 -0.8593,-10.24254 1.47938,-21.27457 8.27517,-29.22393 3.10745,-3.39342 7.2425,-5.91797 11.78395,-6.7974 -0.90375,5.72286 -3.91382,10.84477 -4.96599,16.5427 -2.25207,9.19496 -3.4528,19.45843 0.8179,28.26346 1.24107,2.98029 6.22394,9.40995 8.61393,4.2439 1.62883,-5.1454 1.18113,-10.68114 1.48133,-16.01655 0.41318,-12.61929 0.68777,-25.73477 5.85757,-37.47729 2.23927,-4.49005 5.88649,-9.04059 11.04377,-10.0522 4.92728,0.0304 8.11086,4.63217 10.55907,8.34476 6.09613,10.42801 5.05014,23.45551 0.94881,34.39918 -4.71621,13.95247 -15.51003,24.6571 -21.56674,37.91253 -0.35305,4.20984 -4.07657,7.9289 -8.0834,4.92171 -0.91807,-0.37358 -1.81557,-0.79515 -2.70852,-1.22462 z" />
      </g>
      <flowRoot
         inkscape:export-ydpi="300"
         inkscape:export-xdpi="300"
         inkscape:export-filename="D:\xampp\htdocs\kedai\webapp\tmp\lulelulelogo.png"
         transform="translate(-42.652938,24.525439)"
         style="font-size:72px;font-style:normal;font-variant:normal;font-weight:normal;font-stretch:normal;text-align:start;line-height:100%;writing-mode:lr-tb;text-anchor:start;fill:#241c1c;fill-opacity:0.72486770000000000;stroke:none;font-family:Microsoft Uighur;-inkscape-font-specification:Microsoft Uighur"
         id="flowRoot2921"
         xml:space="preserve"><flowRegion
           id="flowRegion2923"><rect
             style="font-size:72px;fill:#241c1c;fill-opacity:0.72486770000000000"
             y="431.76196"
             x="309.2338"
             height="57.581467"
             width="281.50937"
             id="rect2925" /></flowRegion><flowPara
           style="font-size:72px;font-style:normal;font-variant:normal;font-weight:normal;font-stretch:normal;text-align:start;line-height:100%;writing-mode:lr-tb;text-anchor:start;fill:#241c1c;font-family:IM FELL Double Pica;-inkscape-font-specification:IM FELL Double Pica;fill-opacity:0.72486770000000000"
           id="flowPara2927">LuleLule</flowPara></flowRoot>      <flowRoot
         inkscape:export-ydpi="300"
         inkscape:export-xdpi="300"
         inkscape:export-filename="D:\xampp\htdocs\kedai\webapp\tmp\lulelulelogo.png"
         transform="matrix(0.99400773,0,0,1.0769496,37.633386,-121.69767)"
         style="font-size:20px;font-style:normal;font-variant:normal;font-weight:normal;font-stretch:normal;text-align:start;line-height:100%;writing-mode:lr-tb;text-anchor:start;fill:#1a1a1a;fill-opacity:1;stroke:none;font-family:Microsoft Uighur;-inkscape-font-specification:Microsoft Uighur"
         id="flowRoot3711"
         xml:space="preserve"><flowRegion
           id="flowRegion3713"><rect
             style="font-size:20px;fill:#1a1a1a"
             y="503.20563"
             x="272.97879"
             height="21.250278"
             width="235.09842"
             id="rect3715" /></flowRegion><flowPara
           style="-inkscape-font-specification:Microsoft Uighur;font-family:Microsoft Uighur;font-weight:normal;font-style:normal;font-stretch:normal;font-variant:normal;font-size:21.26327276000000000px;text-anchor:start;text-align:start;writing-mode:lr;line-height:100%;fill:#1a1a1a"
           id="flowPara3717">Fresh. Finesse. Fast...</flowPara></flowRoot>    </g>
    <g
       id="g3668"
       inkscape:export-filename="D:\xampp\htdocs\kedai\webapp\tmp\logo.png"
       inkscape:export-xdpi="300"
       inkscape:export-ydpi="300">
      <g
         inkscape:export-ydpi="300"
         inkscape:export-xdpi="300"
         inkscape:export-filename="D:\xampp\htdocs\kedai\webapp\tmp\lulelulelogo.png"
         transform="matrix(0.24922287,0,0,0.24082951,39.811982,638.11689)"
         id="g8074-7">
        <path
           style="fill:#abc837;stroke:none"
           d="m 1120.804,614.41943 c -29.8229,7.01915 -61.3658,21.38568 -91.9715,9.83477 -7.4286,1.81254 -32.62279,-6.02034 -15.1591,-11.63316 11.3042,-4.44996 38.3602,-2.0267 40.3608,-4.60217 -12.7456,-3.47142 -34.9984,1.08725 -42.1302,-2.02084 33.4304,-19.80244 78.8477,-16.061 108.9,8.4214 z m 8.5662,-55.535 c -17.7437,14.75115 -38.0847,33.7468 -63.1658,29.15178 -10.923,-2.6724 -32.9264,5.81301 -37.3903,-2.31867 15.56,-9.9282 34.3763,-11.63453 51.5221,-17.48537 -14.6655,-5.16253 -29.1614,4.18568 -43.7623,4.13362 9.7582,-10.61026 33.1328,-17.04337 50.3159,-18.10345 14.284,-0.95728 28.7325,0.63633 42.48,4.62204 m 7.3979,-43.50495 c -17.6724,12.82094 -32.8948,34.17078 -56.9516,33.59816 -9.1745,-3.02042 -29.0859,11.12078 -31.3171,0.84647 14.3745,-9.93704 31.1082,-15.71805 47.8747,-20.16213 -17.3817,1.37833 -34.464,6.12262 -50.16,13.695 23.1381,-23.48388 58.2802,-33.72138 90.5539,-27.9775 m -94.2199,-99.1075 c 16.7666,58.83292 4.3816,124.31561 -28.64,175.23357 -20.77229,27.47287 -50.20119,46.98981 -80.99219,61.62323 1.263,-15.86085 19.7858,-17.02453 30.8397,-23.28865 11.7614,-9.50532 23.4991,-19.5909 33.518,-31.17113 32.62849,-38.86035 48.75189,-90.10183 49.65269,-140.4279 -0.051,-14.40919 -1.6654,-28.82561 -4.9954,-42.84984 l 0.3582,0.14916 0.259,0.73156 z m 31.7075,253.9275 c -30.793,-2.64433 -63.9009,0.25802 -91.72239,-15.7374 -16.189,5.763 -16.4953,-22.42581 -0.078,-13.52067 18.54359,-1.02498 36.97479,3.38181 54.14279,10.11682 -18.443,-12.60765 -41.66729,-15.07376 -63.44369,-13.93 31.54869,-13.86791 74.44699,-7.2049 94.03519,23.11567 2.4723,3.23368 4.8015,6.57417 7.0661,9.95558 z m -127.53369,-198.62 c 32.2944,0.72877 66.90159,21.87328 72.84609,55.39198 7.0108,6.78667 -4.4085,26.80344 -6.5903,9.26156 -7.2526,-15.36705 -17.53779,-29.94595 -32.14429,-39.08926 15.739,20.13261 31.64009,43.86319 29.20789,70.65624 -5.2873,-25.15713 -26.68289,-41.38758 -42.89029,-59.51699 -8.7458,-11.00831 -15.8811,-23.37387 -20.4294,-36.70353 m 1.6453,38.8575 c 28.6434,12.99382 52.81769,43.68394 47.2108,76.46576 -12.2946,-6.70225 -5.1536,-36.09883 -19.8223,-34.67083 5.402,13.68583 8.7576,28.39312 6.7611,43.22997 -0.6179,7.1319 -6.3437,25.65416 -6.3812,9.38762 -5.4955,-32.58854 -29.5794,-60.31151 -27.7688,-94.41257 m -25.6952,26.4113 c 23.1308,14.05895 45.9056,37.64235 43.5174,66.75785 4.3953,10.01165 -16.0682,27.36113 -11.0519,8.2026 2.02,-14.27831 -6.1608,-38.36553 -11.4362,-43.76001 8.2937,19.02312 7.1315,40.58569 3.0484,60.48451 0.7522,-30.96634 -30.1824,-54.10336 -24.5995,-85.75576 l 0.2078,-2.96944 0.3167,-2.9598 m 225.87989,-53.81008 c -22.2888,12.80779 -43.8033,29.29439 -69.9772,32.89299 -5.7343,5.93888 -27.1786,5.48018 -10.9604,-3.11934 7.8599,-7.09053 32.9033,-15.34964 31.6128,-19.08641 -14.0291,3.38133 -26.8428,10.30959 -40.6041,14.50965 20.7636,-25.22606 59.0005,-42.45413 89.9289,-25.19689 z m -16.2363,-45.59 c -19.0767,25.21314 -46.8874,41.39996 -73.4507,57.54194 9.8308,-17.58346 26.739,-29.33581 42.4207,-41.26194 -13.4508,-0.27907 -26.9094,27.37303 -35.8747,17.51622 11.3924,-24.92325 41.3209,-34.68511 66.9047,-33.79622 z m -5.0987,-47.73 c -2.174,23.32227 -19.1497,43.17231 -40.1845,52.35365 -9.4038,5.1522 -21.406,21.4305 -26.5812,22.8559 6.3251,-17.59515 19.7597,-31.10596 31.4276,-45.24169 -14.4825,6.36957 -20.5034,23.37686 -35.106,29.56895 3.7332,-33.97141 36.8989,-60.23665 70.4441,-59.53681 z m -37.9513,-34.0875 c 0.3168,20.28639 -6.2159,41.61393 -21.4369,55.65231 -0.2256,10.05681 -16.1687,14.87681 -8.1761,1.06555 2.4707,-5.55057 8.9439,-19.42469 4.8562,-20.02511 0.3935,7.38942 -14.4061,23.87595 -10.9181,7.02647 4.62,-18.94189 18.5008,-34.8848 35.6749,-43.71922 z M 1020.686,331.6818 c 18.7187,6.64756 35.4689,26.14469 30.8834,46.96591 5.0596,7.81446 -11.9658,16.28024 -6.5176,4.0674 2.4071,-7.37383 -12.2985,-32.62381 -5.696,-12.94501 4.5302,5.96953 1.8968,32.43533 -5.6014,17.46037 -7.7414,-17.39018 -15.8083,-36.05535 -13.0684,-55.54867 z m -62.10059,109.36073 c 36.099,-2.10926 70.71389,27.8599 73.91349,63.85569 -7.2978,-11.19826 -19.1076,-32.36442 -26.901,-34.73311 12.5814,15.10579 20.5685,33.5613 25.28,52.52742 -13.8392,-23.97992 -36.16149,-41.0876 -56.68209,-58.90915 -5.8906,-7.08458 -10.7038,-14.96741 -15.6104,-22.74085 z m 82.28129,25.52 c -11.6872,-14.11435 -22.6532,-30.20674 -39.849,-38.07656 17.1226,14.78701 30.5426,34.27739 36.5593,56.20822 -14.4713,-20.99002 -35.8358,-35.50811 -54.55339,-52.2594 -13.3445,-8.46734 -9.6505,-32.98553 8.424,-22.53921 24.65699,9.16682 41.14689,32.58392 49.41909,56.66695 z m -63.13759,-95.845 c 32.31879,0.72456 61.28899,29.62862 61.73899,62.01734 -6.8699,-6.23546 -16.2371,-27.65497 -21.4795,-25.12369 4.1505,6.52239 18.4295,24.21241 12.551,26.43623 -16.2988,-15.8004 -40.79829,-26.20151 -46.85759,-50.06935 -1.9986,-4.41183 -4.5449,-8.59862 -5.9529,-13.26053 z"
           id="path3416-4-4" />
        <g
           id="g4206-0"
           transform="matrix(-1.25,0,0,-1.25,1297.3419,1418.67)"
           style="fill:#cdde87">
          <g
             id="g4208-9"
             style="fill:#cdde87">
            <g
               id="g4214-4"
               style="fill:#cdde87">
              <g
                 id="g4216-8"
                 style="fill:#cdde87">
                <path
                   d="m 185.438,549.211 c -2.292,0.166 -4.032,2.506 -4.773,6.421 -0.352,1.855 -0.509,3.689 -0.509,5.484 0,13.666 9.13,25.067 11.253,26.644 -0.003,-0.006 -0.015,-0.035 -0.015,-0.035 -1.785,-3.313 -2.416,-6.374 -2.416,-9.28 0,-3.581 0.959,-6.924 1.9,-10.207 0.849,-2.959 1.666,-5.807 1.666,-8.63 0,-1.364 -0.191,-2.722 -0.661,-4.085 -1.361,-3.955 -3.95,-6.492 -6.445,-6.312 M 145.484,537.36 c -1.372,0.234 -2.266,2.077 -2.225,4.585 l 0,10e-4 c 0.308,18.839 6.206,28.712 8.319,30.177 0.257,0.178 0.356,0.155 0.357,0.155 0.05,-0.048 0.14,-0.495 -0.402,-1.782 -3.02,-7.183 -2.037,-12.462 -1.17,-17.12 0.645,-3.462 1.254,-6.733 0.077,-10.263 -1.531,-4.609 -3.627,-5.979 -4.956,-5.753 m 2.745,132.632 c -8.104,-14.861 -10.626,-24.894 -7.711,-30.674 4.277,-8.464 14.975,-14.418 23.57,-19.202 7.825,-4.356 14.583,-8.117 13.825,-12.169 -0.346,-1.847 -1.532,-3.158 -3.34,-3.692 -3.252,-0.96 -7.53,0.716 -10.896,4.268 l -1.763,2.006 c -8.101,9.469 -29.619,34.622 -70.437,2.956 -0.073,-0.056 -0.109,-0.148 -0.094,-0.239 1.929,-11.382 12.918,-17.442 30.945,-17.065 8.431,0.173 13.589,-2.585 13.705,-5.351 0.093,-2.219 -3.249,-5.029 -12.975,-5.645 -4.882,-0.309 -10.002,0.396 -15.422,1.143 -16.411,2.26 -33.381,4.597 -46.2,-20.654 -0.038,-0.073 -0.036,-0.161 0.004,-0.234 0.077,-0.139 7.951,-13.808 30.019,-2.358 10.053,5.217 13.019,4.716 13.892,3.954 0.752,-0.657 0.428,-1.858 0.254,-2.344 -1.187,-3.309 -6.092,-5.536 -11.772,-8.114 -8.974,-4.074 -20.144,-9.144 -24.199,-21.188 -4.364,-12.967 3.78,-27.453 8.408,-32.445 0.069,-0.075 0.176,-0.1 0.271,-0.064 1.513,0.571 3.34,1.001 5.456,1.499 5.874,1.382 13.919,3.275 21.292,10.115 7.784,7.219 9.404,14.633 11.119,22.482 1.476,6.756 3.002,13.742 8.724,20.898 4.405,5.502 7.326,4.287 8.117,3.784 1.514,-0.964 1.991,-3.154 1.086,-4.985 -12.699,-25.723 -7.253,-31.049 0.991,-39.11 2.781,-2.719 5.933,-5.802 8.756,-10.114 0.039,-0.057 0.1,-0.096 0.168,-0.108 0.068,-0.012 0.143,0.006 0.195,0.048 l 3.236,2.466 c 7.354,5.553 14.301,10.798 17.403,20.367 2.084,6.426 -0.529,13.94 -3.056,21.204 -1.816,5.218 -3.53,10.146 -3.455,14.427 0.117,6.58 7.28,15.495 12.844,17.908 1.314,0.569 3.133,1.02 4.338,-0.068 1.677,-1.513 3.549,-5.673 -2.76,-16.541 -11.375,-19.599 -0.175,-34.736 7.236,-44.754 4.386,-5.926 7.554,-10.209 4.939,-13.04 -0.079,-0.085 -0.088,-0.213 -0.024,-0.309 0.065,-0.096 0.187,-0.135 0.296,-0.094 0.262,0.099 26.181,10.069 26.325,27.067 0.085,10.11 -5.188,20.132 -9.426,28.184 -2.854,5.424 -5.319,10.108 -5.116,13.05 0.293,4.32 1.217,6.901 2.824,7.891 1.839,1.133 4.416,0.049 6.908,-1.001 1.651,-0.694 3.211,-1.351 4.606,-1.425 1.465,-0.08 2.645,1.195 2.872,3.101 0.265,2.236 -0.894,4.908 -4.066,5.491 0,0.001 -4.297,0.958 -4.297,0.958 -11.282,2.728 -26.734,6.464 -67.729,-17.843 -28.139,-16.685 -45.142,-32.216 -50.537,-46.161 -0.193,-0.5 -0.372,-0.954 -0.475,-1.057 -0.002,0.039 -0.052,0.122 -0.087,0.3 -0.001,0.009 -0.015,0.093 -0.015,0.259 0,1.765 1.478,12.794 33.787,41.067 1.21,1.058 1.819,1.975 1.819,2.735 0,0.184 -0.036,0.359 -0.107,0.524 -0.63,1.462 -3.97,1.682 -6.639,1.426 l -3.152,-0.455 c -5.94,-0.927 -18.301,-2.858 -21.511,-0.338 -0.452,0.354 -0.692,0.773 -0.736,1.281 -0.043,0.511 0.117,0.944 0.489,1.323 2.455,2.501 13.188,1.801 21.024,1.29 l 6.884,-0.353 c 6.551,-0.082 32.244,2.162 38.262,14.625 0.9,1.864 0.957,3.578 0.17,5.094 -2.642,5.092 -14.334,7.024 -22.871,8.435 -3.722,0.615 -6.936,1.146 -8.376,1.782 -4.962,1.782 -12.296,5.094 -12.229,6.938 0.007,0.205 0.264,0.384 0.477,0.498 3.491,1.855 21.129,1.095 28.463,-3.48 0,-0.001 4.176,-2.925 4.176,-2.925 7.713,-5.67 18.276,-13.436 40.638,-9.83 l 2.032,0.227 c 2.649,0.242 5.653,0.516 6.176,2.416 0.514,1.866 -0.863,5.844 -18.676,18.791 -5.817,4.23 -15.772,16.644 -15.703,21.891 0.012,0.866 0.288,1.472 0.844,1.854 0.573,0.393 1.378,0.475 2.392,0.243 5.311,-1.214 16.053,-11.255 24.147,-25.361 9.411,-16.402 21.241,-24.133 28.792,-24.519 0.983,-0.051 1.548,0.153 1.727,0.622 0.559,1.463 -3.448,4.846 -8.745,9.117 l -3.078,2.544 c -6.412,5.742 -8.064,11.729 -11.063,22.599 l -0.201,0.725 c -8.035,29.065 -13.869,39.426 -47.749,41.566 -0.096,0.006 -0.188,-0.044 -0.235,-0.13"
                   style="fill:#cdde87;stroke:none"
                   id="path4224-8" />
              </g>
            </g>
          </g>
        </g>
        <g
           id="g3876-2"
           transform="matrix(1.25,0,0,-1.25,358.32901,1146.1015)"
           style="fill:#89a02c;fill-opacity:1">
          <g
             id="g3878-4"
             style="fill:#89a02c;fill-opacity:1">
            <g
               id="g3884-5"
               style="fill:#89a02c;fill-opacity:1">
              <g
                 id="g3886-5"
                 style="fill:#89a02c;fill-opacity:1">
                <path
                   d="m 484.438,536.73 c -4.313,3.455 -9.203,7.371 -16.02,8.255 -1.254,0.163 -1.367,0.454 -1.368,0.457 l 0,0.003 c 0,0.014 0.02,0.071 0.133,0.157 1.49,1.15 12.975,2.408 28.988,-6.769 2.469,-1.416 3.872,-4.152 3.127,-6.098 -0.629,-1.643 -2.63,-2.235 -5.489,-1.625 -3.213,0.688 -6.205,3.084 -9.371,5.62 m -38.833,-15.623 c 4.255,0.353 15.102,0.349 23.908,-7.298 2.992,-2.6 4.194,-5.339 3.215,-7.329 -0.941,-1.91 -3.749,-2.699 -7.158,-2.01 -3.83,0.773 -6.679,3.713 -9.696,6.825 -4.083,4.212 -8.308,8.563 -15.608,8.765 0.672,0.304 2.45,0.807 5.339,1.047 m -13.827,-32.33 c -1.584,1.296 -2.835,2.321 -3.008,3.569 -0.033,0.228 0.048,0.404 0.255,0.553 1.108,0.803 4.918,0.381 8.824,-1.528 3.108,-1.519 10.375,-6.094 10.709,-15.741 0.046,-1.383 -2.026,-4.043 -4.231,-4.326 -2.095,-0.268 -3.723,1.696 -4.585,5.532 -1.491,6.642 -5.232,9.705 -7.964,11.941 m -46.378,57.008 -0.006,0 0.006,0 z m 86.418,43.032 c -1.384,-4.844 -2.692,-9.421 -4.715,-13.32 -3.842,-7.401 -7.207,-9.043 -8.919,-8.201 -2.346,1.154 -2.81,6.843 0.53,14.023 6.867,14.773 6.072,26.738 -2.239,33.689 -0.075,0.063 -0.179,0.076 -0.267,0.034 -40.021,-18.924 -27.924,-48.63 -23.369,-59.813 l 0.947,-2.406 c 1.904,-5.356 0.964,-9.527 -0.812,-11.286 -1.053,-1.041 -2.386,-1.306 -3.857,-0.766 -3.49,1.283 -4.009,8.664 -4.608,17.21 -0.658,9.379 -1.479,21.051 -6.627,28.585 -3.515,5.143 -12.392,7.784 -27.14,8.072 -0.106,0.002 -0.203,-0.064 -0.239,-0.164 -10.655,-29.095 -4.571,-38.814 15.532,-59.171 7.379,-7.47 7.461,-7.737 9.571,-14.572 l 0.44,-1.418 c 0.681,-2.188 0.479,-4.007 -0.567,-5.122 -0.932,-0.992 -2.502,-1.366 -4.1,-0.976 -2.01,0.49 -3.551,1.989 -4.123,4.01 -7.896,27.899 -20.637,28.56 -21.795,28.561 -7.157,4.88 -23.652,-1.86 -27.056,-4.474 -0.093,-0.073 -0.124,-0.201 -0.072,-0.308 1.122,-2.32 6.642,-21.541 6.697,-21.734 5.927,-16.151 11.328,-19.24 18.314,-21.842 4.873,-1.816 9.184,-1.843 14.883,-0.091 8.294,2.546 11.828,-1.033 13.727,-2.955 0.78,-0.79 1.344,-1.361 1.874,-0.909 0.19,0.162 0.393,0.481 0.288,1.084 -0.372,2.145 -4.445,6.655 -12.005,9.52 -13.747,5.217 -22.161,16.231 -24.235,21.947 -0.419,1.155 -0.439,1.796 -0.318,2.012 0.351,0.624 1.049,0.963 2.076,1.006 5.304,0.223 18.342,-7.772 27.523,-21.301 2.941,-4.331 5.77,-6.294 8.41,-5.833 4.32,0.755 6.385,7.578 6.915,9.651 1.763,6.895 -0.494,19.534 -12.114,34.33 -7.954,10.134 -10.198,21.599 -8.917,27.963 0.386,1.917 1.075,3.238 1.94,3.719 0.38,0.211 0.88,0.155 1.485,-0.169 5.037,-2.694 14.708,-21.739 15.256,-28.511 1.559,-19.323 7.627,-22.341 9.45,-22.806 1.715,-0.437 3.387,0.221 4.367,1.714 11.981,18.317 8.346,31.989 5.941,41.035 -0.639,2.404 -1.191,4.479 -1.406,6.331 -0.911,7.872 5.785,18.854 8.803,20.886 0.452,0.304 0.814,0.41 1.018,0.298 1.482,-0.813 1.434,-8.464 1.041,-13.409 -0.021,-1.51 -0.773,-4.427 -1.642,-7.804 -2.018,-7.838 -4.783,-18.573 -1.552,-23.074 0.914,-1.273 2.263,-1.984 4.009,-2.112 11.875,-0.872 21.355,19.186 23.978,25.355 l 0.996,2.385 c 2.718,6.551 7.776,18.745 11.398,19.786 0.481,0.138 0.908,0.067 1.308,-0.217 3.33,-2.37 -4.154,-13.948 -7.351,-18.892 l -1.514,-2.407 c -1.079,-1.917 -2.276,-5.205 -1.159,-6.405 0.578,-0.62 1.627,-0.576 3.121,0.128 33.746,15.911 47.264,10.198 48.694,9.494 0.625,-0.307 0.836,-0.518 0.92,-0.636 -0.241,-0.014 -0.734,0.036 -1.271,0.091 -15.857,1.667 -35.749,-5.29 -59.123,-20.675 -34.81,-22.913 -47.597,-58.119 -52.122,-77.065 -0.646,-2.687 0.804,-4.278 1.458,-4.837 1.032,-0.884 2.337,-1.226 3.245,-0.851 0.598,0.246 0.958,0.781 1.017,1.504 0.053,0.634 0.509,2.089 1.587,2.543 0.85,0.358 1.915,0.017 3.158,-1.013 1.497,-1.237 1.228,-3.822 0.889,-7.096 -0.448,-4.321 -1.005,-9.698 2.339,-14.503 4.602,-6.618 10.698,-10.574 18.12,-11.757 10.002,-1.594 19.259,2.44 22.175,4.643 0.064,0.048 0.104,0.12 0.104,0.199 -10e-4,0.079 -0.035,0.15 -0.099,0.197 l -0.706,0.517 c -2.639,1.875 -7.552,5.367 -7.629,21.126 -0.081,17.077 -14.035,28.66 -21.181,29.824 -3.569,0.582 -5.823,1.681 -6.891,3.358 -0.823,1.293 -0.939,2.928 -0.356,4.999 0.394,1.402 1.191,2.345 2.367,2.802 2.095,0.813 5.37,0.039 8.766,-2.071 2.218,-1.377 4.87,-5.349 7.941,-9.949 4.972,-7.446 11.158,-16.713 19.467,-21.562 13.549,-7.91 30.938,8.909 31.112,9.08 0.081,0.079 0.099,0.203 0.043,0.301 -0.056,0.099 -0.171,0.148 -0.281,0.119 -3.174,-0.827 -5.413,3.819 -8.513,10.248 -5.238,10.866 -13.154,27.286 -32.854,27.094 -10.896,-0.107 -13.514,3.41 -14.105,5.516 -0.465,1.663 0.784,3.062 1.913,3.942 4.155,3.24 13.301,4.795 18.426,1.866 3.4,-1.943 7.28,-6.224 11.389,-10.757 5.912,-6.523 12.025,-13.269 17.912,-14.579 8.742,-1.947 15.447,1.351 22.544,4.84 l 3.121,1.515 c 0.06,0.03 0.108,0.084 0.13,0.15 0.02,0.065 0.014,0.136 -0.018,0.196 -2.145,3.926 -3.56,7.688 -4.928,11.326 -4.503,11.978 -8.06,21.439 -33.969,23.097 -1.868,0.12 -3.468,1.678 -3.568,3.474 -0.126,2.261 2.094,4.018 5.938,4.698 7.736,1.367 14.91,-0.932 21.847,-3.153 8.208,-2.63 15.961,-5.114 24.551,-2.055 8.125,2.893 12.566,8.679 15.808,12.902 1.166,1.519 2.173,2.831 3.174,3.813 0.071,0.069 0.094,0.173 0.06,0.265 -2.162,5.911 -11.905,22.941 -24.154,25.517 -11.057,2.323 -20.345,-5.297 -27.807,-11.421 -4.71,-3.864 -8.777,-7.201 -11.811,-6.629 -0.455,0.086 -1.539,0.39 -1.767,1.36 -0.311,1.329 0.859,4.072 8.197,9.599 17.111,12.887 9.431,25.48 9.095,26.009 -0.043,0.069 -0.117,0.112 -0.198,0.116 -24.737,1.278 -29.077,-13.909 -33.276,-28.597"
                   style="fill:#89a02c;fill-opacity:1;stroke:none"
                   id="path3894-1" />
              </g>
            </g>
          </g>
        </g>
        <path
           style="fill:#ff5555;fill-opacity:1;stroke:none"
           d="m 801.11045,708.45655 c -6.39553,-5.36688 -6.21223,-20.18426 -18.24723,-14.90219 -11.61954,-1.3389 -14.39846,-15.96532 -8.91229,-24.64156 4.69279,-9.62134 13.93575,-16.28801 17.82381,-26.38019 -9.14894,-4.99435 -13.78404,7.71245 -16.60233,14.21751 -4.44745,9.37442 -8.86098,20.73705 -19.12845,24.94791 -11.85949,3.7092 -7.56034,-16.03944 -17.16159,-12.46074 -9.68602,3.37904 -15.57916,-7.27885 -7.39314,-13.19988 0.16982,-10.56476 1.34883,-21.82948 12.4653,-26.90893 13.73418,-9.37588 32.0276,-11.82958 47.68222,-6.13221 -7.35793,7.17932 -20.23373,2.94509 -27.73676,10.6564 -7.69575,8.13585 4.77735,16.42523 11.75785,9.22088 7.48261,-1.96792 20.56115,-16.73115 24.88468,-5.56839 -3.75647,6.96319 -13.94686,22.2569 1.04488,22.89907 9.47133,-3.37407 10.52219,15.49363 18.53118,6.27733 4.96088,-9.08841 -3.96623,-17.33906 -4.33146,-26.51073 2.36158,-10.83234 5.44172,5.20588 7.35577,9.02618 5.9836,13.102 19.30098,24.09779 17.75111,39.7741 -4.24705,8.96676 -15.14026,12.0553 -20.14055,20.63442 -5.57724,4.39469 -14.98138,5.26635 -19.643,-0.94898 z m -8.09443,-110.63246 c -18.51818,-2.49741 -38.83894,-11.84071 -45.26828,-30.74543 -4.51316,-10.49733 11.22933,-14.00966 5.98988,-23.38665 -0.60615,-11.69577 14.92539,-19.2857 23.31599,-10.715 7.00985,7.36943 15.88226,-5.90542 22.20061,4.27913 7.77551,8.16904 4.60472,19.36419 3.56462,29.19017 -0.27791,9.05236 1.80282,18.02766 4.9856,26.45526 -6.12639,2.39251 -8.11399,-12.50825 -12.23774,-16.69903 -3.41219,-6.78782 -8.17764,-18.18158 -17.7455,-14.76164 -6.4302,6.92115 2.77942,15.99239 5.77697,22.7619 2.46081,4.09088 18.94705,12.60926 9.41785,13.62129 l 0,0 z m 66.79537,-11.59854 c -11.9018,5.68908 -21.62672,15.02074 -29.83947,25.1871 8.92117,3.69585 15.2244,-11.52091 23.73325,-5.58689 1.96137,4.82442 -2.80568,10.90059 5.8876,9.86704 11.12706,-3.90485 16.52722,13.33697 4.51726,15.04809 -6.27223,1.80921 -18.16135,-7.34512 -13.0608,3.75616 3.3587,12.3444 -15.4733,9.67589 -17.67986,0.56739 -1.99789,-5.06652 -9.3345,-12.03479 -9.50966,-2.29471 0.88848,9.14119 5.78369,17.69507 11.23706,24.9539 6.52538,7.68981 15.53517,15.28501 26.11577,15.23419 11.32925,-1.06466 18.83101,-12.23104 19.38399,-22.92741 4.48318,-8.50414 17.1981,-7.07749 21.56457,-16.23801 6.67833,-9.18435 6.08992,-24.77441 -4.69937,-30.63039 -6.81218,-7.3946 -9.90139,-21.41186 -22.72742,-19.73115 -5.10499,-0.16781 -10.16998,1.00125 -14.92292,2.79469 z m -4.7725,-57.9025 c -8.58537,1.04636 -10.14196,19.21436 -17.92561,8.51813 -9.29755,-5.36511 -17.64747,4.51221 -21.96384,11.73076 -8.61459,15.88659 -5.83011,35.26211 0.23936,51.47733 4.93493,4.33925 -1.03213,-8.18585 0.67985,-10.85841 0.8432,-6.57766 1.86344,-19.64344 9.70283,-20.27805 2.0959,5.46621 7.63587,9.7358 9.65392,1.28243 5.53355,-9.03786 19.94258,-0.10333 9.63323,7.40052 -7.26495,8.23571 -18.16076,16.38969 -18.68593,28.03025 6.90613,-1.1964 11.85396,-12.54435 19.76371,-15.54844 8.96918,-6.34497 19.73555,-9.39066 29.02323,-15.04496 9.74396,-6.26367 10.56316,-20.99062 0.024,-26.00631 -0.0776,-10.10772 -3.0795,-24.12124 -16.61855,-21.57234 l -1.79276,0.33869 -1.73344,0.5304 0,0 z"
           id="path7488-7" />
        <path
           id="path7490-1"
           d="m 710.32008,628.69824 c -3.71741,-2.95978 -14.2536,2.03022 -12.17473,-6.26585 -2.13515,-3.79342 -9.83648,-7.59261 -3.39716,-11.83874 4.82689,-3.11142 -1.30432,-9.18125 4.51954,-11.78576 3.99196,-3.49731 6.58179,1.76346 4.43138,5.0588 1.29711,7.26549 10.61659,5.88851 15.27831,2.84865 4.70107,-1.51968 2.44231,-6.2871 -1.71465,-5.80684 -6.40037,-1.80574 -0.35766,-10.81439 3.63342,-5.28667 1.45992,5.34055 6.77157,10.18342 12.06924,6.1364 3.69632,-2.41613 0.57109,-5.57721 -2.67717,-5.74217 -4.73685,-2.04874 -1.50405,-10.81644 2.84826,-6.59367 2.14237,4.58032 4.58874,12.66397 11.29566,9.71203 4.56702,-2.50333 -0.28588,-6.60314 -2.91918,-7.9854 -3.21852,-5.49356 7.15336,-8.39638 6.12001,-1.47177 -0.75658,7.0273 6.10425,9.115 11.73568,7.57155 10.29371,-1.25692 20.78081,-0.0816 30.84698,2.24778 9.88152,2.53294 19.68978,6.8756 26.98893,14.13059 3.5321,5.66411 -3.1721,13.82723 -9.43357,11.17691 -7.39998,-1.77272 -12.91337,-7.56006 -19.99409,-10.11698 -13.12803,-6.39212 -27.47989,-10.95647 -42.20205,-10.90968 -6.89361,1.24911 0.36199,11.69491 -6.20175,12.97687 -6.13546,-0.90885 -2.58003,-9.07172 0.46785,-10.69599 -2.36856,-4.95518 -11.77363,-0.72419 -11.29531,4.4099 0.87926,3.97427 -0.17059,11.55249 -5.68802,7.39892 -4.27218,-4.50353 5.91167,-5.99397 3.16319,-10.17383 -4.43297,-2.61624 -9.44246,2.54549 -12.68251,5.30677 -4.73442,4.80198 3.59693,9.45141 1.22056,14.46099 -1.00786,1.27175 -2.72688,1.53116 -4.23882,1.23719 z"
           style="fill:#ffb380;fill-opacity:1;stroke:none" />
        <path
           id="path6656-1"
           style="fill:#ff2a2a;fill-opacity:1;stroke:none"
           d="m 869.78782,693.99479 c 3.68565,-5.84076 12.46756,-4.6155 16.07297,-10.54381 -2.51162,-6.45165 -0.65712,-15.86246 6.68816,-18.11567 9.96634,-3.5663 20.3108,2.22982 27.44457,8.93719 4.92239,3.89483 9.85187,7.98347 15.71824,10.38658 4.51295,-5.38032 -2.28806,-11.49528 -7.25378,-13.23508 -10.8062,-5.65218 -23.69525,-9.31828 -30.94043,-19.87147 -3.18604,-5.38853 1.28308,-14.94134 8.18027,-12.82113 6.72672,0.23763 4.32946,-8.35289 2.32013,-11.69835 0.15532,-7.14147 9.67326,-9.50675 12.88417,-3.20724 6.03594,3.91476 14.29361,-1.66417 19.79881,3.71131 14.95642,12.43238 20.62484,34.03767 15.9841,52.61611 -0.51561,3.08204 -1.98522,7.67886 -3.99295,2.66016 -2.16624,-4.95005 -0.24181,-10.86794 -3.26219,-15.56286 -1.92105,-5.24042 -4.16367,-12.2978 -10.50888,-13.32297 -5.68966,-0.51629 -7.06618,7.07423 -5.17549,11.26012 2.27531,5.48809 5.83336,10.36452 8.31275,15.78123 0.91159,3.66911 6.23575,8.49645 2.54961,11.61111 -4.43966,2.70341 -9.0948,-1.21986 -12.61371,-3.74234 -3.86934,-4.23455 -12.94932,-3.68808 -14.12602,2.68356 1.90036,5.10448 0.4642,10.80136 -5.51857,12.30392 -7.69404,2.65833 -1.27365,12.87025 5.25583,10.60658 8.21386,-1.94879 16.18077,-5.79913 24.78591,-5.81117 3.67417,5.86562 -7.98202,3.65282 -10.99255,6.35299 -13.07764,5.69128 -23.45109,17.64548 -38.25059,19.11698 -7.03307,0.7547 -11.29737,-6.047 -14.43644,-11.2655 -3.8334,-5.09969 -11.15834,-7.63016 -12.53272,-14.43933 -1.73518,-4.8969 -0.86778,-11.22704 3.6088,-14.39092 z m 110.63246,-8.09443 c 2.12491,-15.27338 8.49112,-30.85859 21.05372,-40.44626 5.5067,-3.97454 12.6428,-6.28881 19.4018,-4.68205 3.1787,1.48402 2.8592,6.31972 6.347,7.37092 4.0634,0.0596 8.0766,-2.7361 12.1619,-1.08033 7.8154,3.02147 12.2318,13.34754 7.8909,20.78875 -2.5062,2.28695 -6.9273,5.78882 -4.1618,9.57369 2.795,3.31444 3.4589,8.7969 0.1959,12.04348 -5.4995,7.28503 -15.7708,9.44863 -24.2748,7.05293 -8.9338,-1.66229 -18.2104,-0.81549 -26.83224,1.96846 -2.8539,0.48187 -6.53863,2.62961 -8.77049,2.42181 -0.36735,-4.02177 4.42453,-4.76623 7.13194,-6.28697 8.9569,-5.22884 19.28109,-8.74913 26.39579,-16.62663 2.3265,-3.22104 0.9938,-9.17226 -3.395,-9.66522 -6.0601,-0.40557 -11.0983,3.5615 -16.2055,6.19235 -4.9287,3.18983 -9.33025,7.31451 -12.40685,12.34506 1.90686,4.92101 -8.37429,2.69531 -4.53227,-0.96999 z m 11.59854,66.79538 c -5.68391,-11.9053 -15.02489,-21.6226 -25.1871,-29.8395 -2.42365,6.3945 3.90607,11.1275 6.20202,16.4339 3.91693,4.8553 -4.36435,12.9732 -7.44187,6.0942 -7.06084,2.8065 0.94991,12.9341 -5.76735,16.8817 -5.59699,5.1436 -13.90608,-1.5435 -12.7675,-8.2428 -0.75809,-4.0929 6.5377,-10.3448 1.9704,-12.5679 -3.94679,3.6042 -12.30788,5.4105 -13.59595,-1.6827 -0.9765,-8.4794 6.96461,-14.9591 14.33985,-17.2322 5.86917,-5.44505 -5.75264,-7.61275 -9.24694,-4.61447 -15.42174,3.55807 -28.70695,15.13827 -34.65425,29.74887 -2.38814,8.2422 2.0114,17.5519 9.4308,21.6022 5.12509,4.9793 15.37701,1.3112 18.23801,9.1651 1.70372,6.7388 5.48864,12.6273 11.16173,16.6895 8.50727,6.0454 21.80524,6.0242 28.88212,-2.2507 3.26708,-7.5724 12.84023,-8.137 17.8763,-13.8336 5.06678,-7.8388 3.72232,-18.0727 0.55973,-26.3516 z m 57.90248,-4.7725 c -2.3584,-6.0372 -8.1384,-9.8427 -13.895,-12.24 4.4049,-3.2931 9.0068,-9.1946 6.2858,-14.9008 -6.5302,-12.36597 -21.0616,-18.38902 -34.5582,-18.11428 -10.68431,-10e-4 -21.40533,2.20591 -31.25363,6.29812 -2.94883,3.69129 4.97617,0.0375 6.74687,0.28009 8.72327,-1.21761 17.89196,0.95705 25.17066,5.82924 4.6231,4.55163 -2.2097,5.40813 -5.2351,6.66913 -2.4726,4.6363 5.386,5.9102 7.0026,9.7231 3.4458,2.9901 2.8542,9.9277 -2.4955,9.9887 -5.9267,0.1562 -8.90732,-5.9387 -12.94368,-9.2475 -6.27225,-6.3537 -13.86391,-12.0773 -22.86205,-13.6326 -1.49008,4.1991 5.65865,5.6293 7.23297,9.1587 9.05032,9.2521 15.22634,20.8368 19.95358,32.7786 3.02178,7.0171 8.29008,14.252 16.44488,15.2691 5.1046,0.9326 11.7258,-1.5452 12.5039,-7.237 2.8397,-4.534 9.3706,1.1936 13.6054,-1.8966 5.7425,-1.4059 9.3513,-7.028 9.2762,-12.7589 0.073,-2.0269 -0.2337,-4.0767 -0.9797,-5.9671 z" />
        <path
           style="fill:#ff9955;fill-opacity:1;stroke:none"
           d="m 949.54613,603.20442 c 2.95978,-3.71741 -2.03022,-14.2536 6.26585,-12.17473 3.79342,-2.13515 7.59261,-9.83648 11.83874,-3.39716 3.11142,4.82689 9.18125,-1.30432 11.78576,4.51954 3.49731,3.99196 -1.76346,6.58179 -5.0588,4.43138 -7.26549,1.29711 -5.88851,10.61659 -2.84865,15.27831 1.51968,4.70107 6.2871,2.44231 5.80684,-1.71465 1.80574,-6.40037 10.81439,-0.35766 5.28667,3.63342 -5.34055,1.45992 -10.18342,6.77157 -6.1364,12.06924 2.41613,3.69632 5.57721,0.57109 5.74217,-2.67717 2.04874,-4.73685 10.81644,-1.50405 6.59367,2.84826 -4.58032,2.14237 -12.66397,4.58874 -9.71203,11.29566 2.50333,4.56702 6.60314,-0.28588 7.9854,-2.91918 5.49356,-3.21852 8.39638,7.15336 1.47177,6.12001 -7.0273,-0.75658 -9.115,6.10425 -7.57155,11.73568 1.25692,10.29371 0.0816,20.78081 -2.24778,30.84698 -2.53294,9.88152 -6.8756,19.68978 -14.13059,26.98893 -5.66411,3.5321 -13.82723,-3.1721 -11.17691,-9.43357 1.77272,-7.39998 7.56006,-12.91337 10.11698,-19.99409 6.39212,-13.12803 10.95647,-27.47989 10.90968,-42.20205 -1.24911,-6.89361 -11.69491,0.36199 -12.97687,-6.20175 0.90885,-6.13546 9.07172,-2.58003 10.69599,0.46785 4.95518,-2.36856 0.72419,-11.77363 -4.4099,-11.29531 -3.97427,0.87926 -11.55249,-0.17059 -7.39892,-5.68802 4.50353,-4.27218 5.99397,5.91167 10.17383,3.16319 2.61624,-4.43297 -2.54549,-9.44246 -5.30677,-12.68251 -4.80198,-4.73442 -9.45141,3.59693 -14.46099,1.22056 -1.27175,-1.00786 -1.53116,-2.72688 -1.23719,-4.23882 z"
           id="path6658-5" />
        <path
           id="path6662-2"
           style="fill:#677821;fill-opacity:1;stroke:none"
           d="m 877.72095,724.01241 c -11.23174,-1.25185 -21.03066,-9.48713 -24.96527,-19.97171 -2.84117,-6.67592 -5.38495,-13.94748 -4.51729,-21.2989 0.57149,-1.76431 1.06209,-5.66454 2.52729,-2.1889 6.94731,9.95126 15.81743,18.87865 26.77205,24.3271 6.66754,3.39146 14.51362,3.96985 21.74897,2.33177 3.11829,-0.81987 8.77854,-2.76955 6.63591,-6.99254 -1.97023,-3.20521 -6.21423,-3.43805 -9.50681,-4.45069 -9.41657,-1.93967 -19.82768,-1.34197 -28.05461,-7.08177 -4.1546,-2.79368 -7.41975,-6.63716 -10.96724,-10.11856 6.49608,-0.27146 13.76381,-0.91091 18.46846,-5.98112 2.72777,-2.65178 4.23752,-6.27092 6.91421,-8.96602 4.72602,-2.37987 10.12923,0.006 14.5197,2.06527 6.72849,3.26588 12.55155,8.62862 15.54237,15.56461 3.9095,7.69702 7.18992,15.71922 9.79574,23.94832 0.63152,4.21419 -2.97212,7.49287 -5.88563,9.97231 -9.39687,7.20534 -21.66821,9.44777 -33.26595,9.29328 -1.9264,-0.0582 -3.85022,-0.20728 -5.7619,-0.45245 z m -61.41341,66.85496 c -12.29431,-6.7321 -20.99744,-19.80521 -22.05685,-33.83625 -0.8593,-10.24254 1.47938,-21.27457 8.27517,-29.22393 3.10745,-3.39342 7.2425,-5.91797 11.78395,-6.7974 -0.90375,5.72286 -3.91382,10.84477 -4.96599,16.5427 -2.25207,9.19496 -3.4528,19.45843 0.8179,28.26346 1.24107,2.98029 6.22394,9.40995 8.61393,4.2439 1.62883,-5.1454 1.18113,-10.68114 1.48133,-16.01655 0.41318,-12.61929 0.68777,-25.73477 5.85757,-37.47729 2.23927,-4.49005 5.88649,-9.04059 11.04377,-10.0522 4.92728,0.0304 8.11086,4.63217 10.55907,8.34476 6.09613,10.42801 5.05014,23.45551 0.94881,34.39918 -4.71621,13.95247 -15.51003,24.6571 -21.56674,37.91253 -0.35305,4.20984 -4.07657,7.9289 -8.0834,4.92171 -0.91807,-0.37358 -1.81557,-0.79515 -2.70852,-1.22462 z" />
      </g>
      <flowRoot
         inkscape:export-ydpi="300"
         inkscape:export-xdpi="300"
         inkscape:export-filename="D:\xampp\htdocs\kedai\webapp\tmp\lulelulelogo.png"
         transform="matrix(0.76460243,0,0,0.76457197,64.349351,441.42442)"
         style="font-size:72px;font-style:normal;font-variant:normal;font-weight:normal;font-stretch:normal;text-align:start;line-height:100%;writing-mode:lr-tb;text-anchor:start;fill:#241c1c;fill-opacity:0.84656084;stroke:none;font-family:Microsoft Uighur;-inkscape-font-specification:Microsoft Uighur"
         id="flowRoot2921-7"
         xml:space="preserve"><flowRegion
           id="flowRegion2923-6"><rect
             ry="0"
             style="font-size:72px;fill:#241c1c;fill-opacity:0.84656084"
             y="431.76196"
             x="309.2338"
             height="60.3708"
             width="280.11478"
             id="rect2925-1" /></flowRegion><flowPara
           id="flowPara3105"
           style="font-size:72px;font-style:normal;font-variant:normal;font-weight:normal;font-stretch:normal;text-align:start;line-height:100%;writing-mode:lr-tb;text-anchor:start;fill:#241c1c;fill-opacity:0.84656084;font-family:IM FELL Double Pica;-inkscape-font-specification:IM FELL Double Pica">floweri.es</flowPara></flowRoot>      <flowRoot
         inkscape:export-ydpi="300"
         inkscape:export-xdpi="300"
         inkscape:export-filename="D:\xampp\htdocs\kedai\webapp\tmp\lulelulelogo.png"
         transform="matrix(1.1417212,0,0,1.2742682,18.038981,97.314305)"
         style="font-size:20px;font-style:normal;font-variant:normal;font-weight:normal;font-stretch:normal;text-align:start;line-height:100%;writing-mode:lr-tb;text-anchor:start;fill:#1a1a1a;fill-opacity:1;stroke:none;font-family:Microsoft Uighur;-inkscape-font-specification:Microsoft Uighur"
         id="flowRoot3711-2"
         xml:space="preserve"><flowRegion
           id="flowRegion3713-3"><rect
             style="font-size:20px;fill:#1a1a1a"
             y="503.20563"
             x="272.97879"
             height="21.250278"
             width="235.09842"
             id="rect3715-2" /></flowRegion><flowPara
           style="font-size:21.26327324px;font-style:normal;font-variant:normal;font-weight:normal;font-stretch:normal;text-align:start;line-height:100%;writing-mode:lr-tb;text-anchor:start;fill:#1a1a1a;font-family:Microsoft Uighur;-inkscape-font-specification:Microsoft Uighur"
           id="flowPara3717-2">Fresh. Finesse. Fast...</flowPara></flowRoot>    </g>
  </g>
</svg>
